\relax 
\citation{wiss}
\@writefile{toc}{\contentsline {section}{\numberline {1}はじめに}{1}}
\@writefile{toc}{\contentsline {section}{\numberline {2}論文執筆について}{1}}
\@writefile{toc}{\contentsline {subsection}{\numberline {2.1}全般的な注意事項}{1}}
\@writefile{toc}{\contentsline {subsection}{\numberline {2.2}表題，著者名，概要}{1}}
\@writefile{lof}{\contentsline {figure}{\numberline {1}{\ignorespaces ヘッダの例}}{2}}
\newlabel{figure:header}{{1}{2}}
\@writefile{toc}{\contentsline {subsection}{\numberline {2.3}本文}{2}}
\@writefile{toc}{\contentsline {subsection}{\numberline {2.4}謝辞，参考文献}{2}}
\@writefile{lof}{\contentsline {figure}{\numberline {2}{\ignorespaces 図面の例}}{2}}
\newlabel{figure:one_image}{{2}{2}}
\@writefile{toc}{\contentsline {subsection}{\numberline {2.5}未来ビジョン}{2}}
\@writefile{toc}{\contentsline {section}{\numberline {3}論文作成の例}{2}}
\@writefile{toc}{\contentsline {subsection}{\numberline {3.1}図表挿入の例}{2}}
\@writefile{toc}{\contentsline {subsubsection}{\numberline {3.1.1}表の例}{2}}
\@writefile{lot}{\contentsline {table}{\numberline {1}{\ignorespaces 食欲を満たす方法と特徴.}}{2}}
\newlabel{tab:restaurant}{{1}{2}}
\@writefile{lof}{\contentsline {figure}{\numberline {3}{\ignorespaces グラフの例}}{3}}
\newlabel{figure:graph}{{3}{3}}
\@writefile{toc}{\contentsline {subsection}{\numberline {3.2}数式の例}{3}}
\newlabel{eqn:sum}{{1}{3}}
\@writefile{toc}{\contentsline {section}{\numberline {4}まとめ}{3}}
\@writefile{toc}{\contentsline {section}{\numberline {5}てすと}{3}}
\bibstyle{jwiss}
\bibdata{sample}
\bibcite{wiss}{1}
\bibcite{aoki1999}{2}
\bibcite{rekimoto2000}{3}
